D:\CEATech PRTT Toulouse\03-Projets\03-Ensignement\MIAGE-SOA-2019\exercices\gitlab\customers-api-spring\src\main\java\com\acme\customers\server\Application.java
D:\CEATech PRTT Toulouse\03-Projets\03-Ensignement\MIAGE-SOA-2019\exercices\gitlab\customers-api-spring\src\main\java\com\acme\customers\server\controller\CustomerController.java
D:\CEATech PRTT Toulouse\03-Projets\03-Ensignement\MIAGE-SOA-2019\exercices\gitlab\customers-api-spring\src\main\java\com\acme\customers\service\CustomerService.java
D:\CEATech PRTT Toulouse\03-Projets\03-Ensignement\MIAGE-SOA-2019\exercices\gitlab\customers-api-spring\src\main\java\com\acme\customers\service\CustomerServiceImpl.java
D:\CEATech PRTT Toulouse\03-Projets\03-Ensignement\MIAGE-SOA-2019\exercices\gitlab\customers-api-spring\src\main\java\com\acme\customers\server\controller\HelloController.java
D:\CEATech PRTT Toulouse\03-Projets\03-Ensignement\MIAGE-SOA-2019\exercices\gitlab\customers-api-spring\src\main\java\com\acme\customers\model\Customer.java
